Differential Expression Enrichment Analysis
…
## $EOfAD
## named list()
## 
## $fAI
## $fAI$`17`
## # A tibble: 65 × 11
##    pathway      pval   FDR log2err     ES   NES  size leadingEdge edgeSize  padj
##    <chr>       <dbl> <dbl>   <dbl>  <dbl> <dbl> <int> <list>         <dbl> <dbl>
##  1 WP_ALZHEI… 0.0302 0.492   0.352 -1     -1.33     1 <chr [1]>          1     1
##  2 WP_CANONI… 0.0302 0.492   0.352 -1     -1.33     1 <chr [1]>          1     1
##  3 WP_NOTCH_… 0.0302 0.492   0.352 -1     -1.33     1 <chr [1]>          1     1
##  4 WP_NOTCH_… 0.0302 0.492   0.352 -1     -1.33     1 <chr [1]>          1     1
##  5 WP_IL5_SI… 0.113  0.917   0.186  0.95   1.27     1 <chr [1]>          1     1
##  6 WP_REGULA… 0.113  0.917   0.186  0.95   1.27     1 <chr [1]>          1     1
##  7 WP_FGF23_… 0.183  0.917   0.144 -0.908 -1.21     1 <chr [1]>          1     1
##  8 WP_NAD_ME… 0.183  0.917   0.144 -0.908 -1.21     1 <chr [1]>          1     1
##  9 WP_SPINAL… 0.183  0.917   0.144 -0.908 -1.21     1 <chr [1]>          1     1
## 10 WP_METHIO… 0.235  0.917   0.125 -0.892 -1.19     1 <chr [1]>          1     1
## # … with 55 more rows, and 1 more variable: DE <lgl>
…
## $EOfAD
## $EOfAD$`17`
## # A tibble: 2,971 × 11
##    pathway       pval   FDR log2err    ES   NES  size leadingEdge edgeSize  padj
##    <chr>        <dbl> <dbl>   <dbl> <dbl> <dbl> <int> <list>         <dbl> <dbl>
##  1 GOMF_DNA_B… 0.0123 0.824   0.381 0.952  2.02     2 <chr [1]>          1     1
##  2 GOBP_AMINO… 0.0146 0.824   0.381 0.993  1.98     1 <chr [1]>          1     1
##  3 GOBP_ASPAR… 0.0146 0.824   0.381 0.993  1.98     1 <chr [1]>          1     1
##  4 GOBP_CELLU… 0.0146 0.824   0.381 0.993  1.98     1 <chr [1]>          1     1
##  5 GOBP_L_MET… 0.0146 0.824   0.381 0.993  1.98     1 <chr [1]>          1     1
##  6 GOBP_METHI… 0.0146 0.824   0.381 0.993  1.98     1 <chr [1]>          1     1
##  7 GOBP_METHI… 0.0146 0.824   0.381 0.993  1.98     1 <chr [1]>          1     1
##  8 GOBP_SULFU… 0.0146 0.824   0.381 0.993  1.98     1 <chr [1]>          1     1
##  9 GOBP_SULFU… 0.0146 0.824   0.381 0.993  1.98     1 <chr [1]>          1     1
## 10 GOBP_AMINO… 0.0233 0.824   0.352 0.981  1.96     1 <chr [1]>          1     1
## # … with 2,961 more rows, and 1 more variable: DE <lgl>
## 
## $EOfAD$`8`
## # A tibble: 3,150 × 11
##    pathway       pval   FDR log2err    ES   NES  size leadingEdge edgeSize  padj
##    <chr>        <dbl> <dbl>   <dbl> <dbl> <dbl> <int> <list>         <dbl> <dbl>
##  1 GOCC_SPEC… 6.00e-4 0.630   0.477 0.927  2.14     3 <chr [3]>          3     1
##  2 GOCC_TERT… 6.00e-4 0.630   0.477 0.927  2.14     3 <chr [3]>          3     1
##  3 GOCC_TERT… 6.00e-4 0.630   0.477 0.927  2.14     3 <chr [3]>          3     1
##  4 GOBP_NON_… 1.22e-3 0.915   0.455 0.971  2.11     2 <chr [2]>          2     1
##  5 GOCC_SPEC… 1.87e-3 0.915   0.455 0.856  2.09     4 <chr [3]>          3     1
##  6 GOBP_MEMB… 3.83e-3 0.915   0.432 0.997  2.00     1 <chr [1]>          1     1
##  7 GOBP_DEFE… 6.51e-3 0.915   0.407 0.786  2.00     5 <chr [3]>          3     1
##  8 GOMF_HELI… 9.94e-3 0.915   0.381 0.787  1.92     4 <chr [3]>          3     1
##  9 GOBP_MYEL… 1.01e-2 0.915   0.381 0.763  1.94     5 <chr [3]>          3     1
## 10 GOMF_RNA_… 1.35e-2 0.915   0.381 0.904  1.97     2 <chr [2]>          2     1
## # … with 3,140 more rows, and 1 more variable: DE <lgl>
## 
## 
## $fAI
## $fAI$`17`
## # A tibble: 2,455 × 11
##    pathway      pval    FDR log2err    ES   NES  size leadingEdge edgeSize  padj
##    <chr>       <dbl>  <dbl>   <dbl> <dbl> <dbl> <int> <list>         <dbl> <dbl>
##  1 GOBP_GLI… 7.83e-4 0.0931   0.477 0.980  2.13     2 <chr [1]>          1     1
##  2 GOBP_GLI… 7.83e-4 0.0931   0.477 0.980  2.13     2 <chr [1]>          1     1
##  3 GOBP_REG… 9.66e-4 0.0931   0.477 0.896  2.30     6 <chr [2]>          2     1
##  4 GOBP_SKE… 1.39e-3 0.0931   0.455 0.979  2.13     2 <chr [2]>          2     1
##  5 GOCC_NUC… 1.46e-3 0.0931   0.455 0.914  2.27     5 <chr [2]>          2     1
##  6 GOCC_NUC… 1.46e-3 0.0931   0.455 0.914  2.27     5 <chr [2]>          2     1
##  7 GOBP_REG… 1.48e-3 0.0931   0.455 0.979  2.13     2 <chr [2]>          2     1
##  8 GOBP_VES… 1.91e-3 0.0931   0.455 0.956  2.19     3 <chr [2]>          2     1
##  9 GOBP_POS… 1.94e-3 0.0931   0.455 0.979  2.13     2 <chr [2]>          2     1
## 10 GOBP_IMM… 1.98e-3 0.0931   0.432 0.932  2.23     4 <chr [2]>          2     1
## # … with 2,445 more rows, and 1 more variable: DE <lgl>
## 
## $fAI$`4`
## # A tibble: 2,379 × 11
##    pathway       pval   FDR log2err    ES   NES  size leadingEdge edgeSize  padj
##    <chr>        <dbl> <dbl>   <dbl> <dbl> <dbl> <int> <list>         <dbl> <dbl>
##  1 GOBP_LEUK… 5.36e-4 0.425   0.477 0.978  2.28     2 <chr [2]>          2     1
##  2 GOBP_NEGA… 5.36e-4 0.425   0.477 0.978  2.28     2 <chr [2]>          2     1
##  3 GOBP_REGU… 5.36e-4 0.425   0.477 0.978  2.28     2 <chr [2]>          2     1
##  4 GOBP_MYEL… 2.02e-3 0.484   0.432 0.835  2.23     4 <chr [4]>          4     1
##  5 GOBP_REGU… 2.02e-3 0.484   0.432 0.835  2.23     4 <chr [4]>          4     1
##  6 GOBP_REGU… 3.20e-3 0.484   0.432 0.603  2.05    12 <chr [8]>          8     1
##  7 GOBP_MYEL… 7.10e-3 0.484   0.407 0.830  2.11     3 <chr [3]>          3     1
##  8 GOBP_REGU… 7.10e-3 0.484   0.407 0.830  2.11     3 <chr [3]>          3     1
##  9 GOBP_INTE… 7.70e-3 0.484   0.407 0.996  2.05     1 <chr [1]>          1     1
## 10 GOBP_INTE… 7.70e-3 0.484   0.407 0.996  2.05     1 <chr [1]>          1     1
## # … with 2,369 more rows, and 1 more variable: DE <lgl>
…
